@startuml

title __NFA035's Class Diagram__\n

  namespace fr.cnam.foad.nfa035.badges.wallet.dao {
    class fr.cnam.foad.nfa035.badges.wallet.dao.DirectAccessBadgeWalletDAOTest {
    }
  }
  

  namespace fr.cnam.foad.nfa035.badges.wallet.dao {
    class fr.cnam.foad.nfa035.badges.wallet.dao.JSONBadgeWalletDAOTest {
    }
  }
  



right footer


PlantUML diagram generated by SketchIt! (https://bitbucket.org/pmesmeur/sketch.it)
For more information about this tool, please contact philippe.mesmeur@gmail.com
endfooter

@enduml
